2016-08-01,202,202,-540,-39
2016-08-02,556,379,0,-39
2016-08-03,131,296,0,-39
2016-08-04,425,328,0,-39
2016-08-05,530,368,0,-39
2016-08-06,0,307,0,-39
2016-08-07,0,263,0,-39
2016-08-08,0,230,0,-39
2016-08-09,244,232,0,-39
2016-08-10,827,291,0,-39
2016-08-11,0,265,0,-39
2016-08-12,332,270,0,-39
2016-08-13,0,249,0,-39
2016-08-14,0,231,0,-39
2016-08-15,330,238,0,-0
2016-08-16,215,237,0,-0
2016-08-17,317,241,0,-0
2016-08-18,75,232,0,-0
2016-08-19,470,244,0,-0
2016-08-20,0,232,0,-0
2016-08-21,0,221,0,-0
2016-08-22,302,225,0,-0
2016-08-23,189,223,0,-0
2016-08-24,0,214,0,-0
2016-08-25,0,205,0,-0
2016-08-26,526,218,0,-0
2016-08-27,0,210,0,-0
2016-08-28,0,202,0,-0
2016-08-29,282,205,0,-0
2016-08-30,328,209,0,-0
2016-08-31,561,220,0,-0
2016-09-01,696,235,0,-0
2016-09-02,577,245,0,-0
2016-09-03,0,238,0,-0
2016-09-04,0,231,0,-0
2016-09-05,272,232,0,-0
2016-09-06,0,226,0,-0
2016-09-07,0,220,0,-0
2016-09-08,0,215,0,-0
2016-09-09,0,209,0,-0
2016-09-10,0,204,0,-0
2016-09-11,0,199,0,-0
2016-09-12,0,195,0,-0
2016-09-13,-2,190,0,-0
2016-09-14,681,201,0,-0
2016-09-15,791,214,0,-0
2016-09-16,11,209,0,-0
2016-09-17,0,205,0,-0
2016-09-18,0,201,0,-0
2016-09-19,262,202,0,-0
2016-09-20,727,212,0,-0
2016-09-21,24,208,0,-0
2016-09-22,0,178,0,-0
2016-09-26,358,203,0,-0
2016-09-27,7,155,0,-0
2016-09-28,246,116,0,-0
2016-09-29,421,146,0,-0
2016-10-01,115,154,0,-0
2016-10-05,17,83,0,-0
2016-10-06,503,119,0,-0
2016-10-07,391,147,0,-0
2016-10-10,522,158,0,-0
2016-10-11,622,185,0,-0
2016-10-13,792,211,0,-0
2016-10-17,17,204,0,-0
2016-10-18,174,215,0,-0
2016-10-19,405,208,0,-0
2016-10-24,995,170,0,-0
2016-10-25,101,177,0,-0
2016-10-26,718,172,0,-0
2016-10-30,388,198,0,-0
2016-11-02,204,171,0,-0
2016-11-12,281,34,0,-0
2016-11-21,385,47,0,-0
2016-11-22,244,65,0,-0
2016-11-23,399,93,0,-0
2016-11-24,253,111,0,-0
2016-11-25,459,124,0,-0
2016-11-28,993,195,0,-0
2016-11-29,66,199,0,-0
2016-11-30,184,213,0,-0
2016-12-01,914,278,0,-0
2016-12-02,182,291,0,-0
2016-12-03,86,297,0,-0
2016-12-05,16,253,0,-0
2016-12-06,168,237,0,-0
2016-12-07,97,226,0,-0
2016-12-08,24,195,0,-0
2016-12-12,196,133,0,-0
2016-12-13,65,124,0,-0
2016-12-14,183,72,0,-0
2016-12-15,110,67,0,-0
2016-12-16,132,70,0,-0
2016-12-19,114,65,0,-0
2016-12-21,332,80,0,-0
2016-12-22,222,96,0,-0
2016-12-23,31,98,0,-0
2016-12-28,449,91,0,-0
2017-01-02,458,106,0,-0
2017-01-03,503,118,0,-0
2017-01-04,52,106,0,-0
2017-01-05,0,104,0,-0
2017-01-06,1879,238,0,-0
2017-01-09,301,260,0,-0
2017-01-10,1293,320,0,-0
2017-01-11,881,383,0,-0
2017-01-12,833,442,0,-0
2017-01-13,1181,527,0,-0
2017-01-17,890,518,0,-0
2017-01-19,308,406,0,-0
2017-01-20,563,446,-68,-5
2017-01-24,757,323,-71,-10
2017-01-28,0,211,0,-10
2017-02-01,88,100,-29,-12
2017-02-02,47,63,-36,-15
2017-02-03,0,63,-56,-14
2017-02-07,52,13,-38,-11
2017-02-08,229,29,-96,-18
2017-02-09,1031,103,-102,-26
2017-02-10,843,163,-82,-31
2017-02-13,576,204,-83,-37
2017-02-16,194,208,-68,-38
2017-02-17,419,238,-65,-38
2017-02-20,267,254,-79,-44
2017-03-15,0,100,0,-0
2017-04-03,7,0,-30,-2
2017-04-05,0,0,-30,-4
2017-04-13,235,17,-102,-12
2017-04-17,0,22,0,-9
2017-04-20,203,31,-68,-12
2017-04-21,436,62,-59,-16
2017-04-23,16,63,-58,-21
2017-04-27,314,69,-27,-15
2017-04-28,268,88,-27,-17
2017-05-02,241,105,-40,-20
2017-05-03,4,91,-87,-26
2017-05-04,227,76,-39,-24
2017-05-10,0,59,0,-16
2017-05-12,317,56,-69,-17
2017-05-13,222,72,-125,-26
2017-05-27,0,0,-59,-4
2017-06-07,0,20,0,-4
2017-06-09,472,33,-109,-12
2017-06-12,425,64,-97,-15
2017-06-13,524,101,-72,-20
2017-06-14,204,116,-41,-23
2017-06-16,560,156,-71,-28
2017-06-17,235,172,-56,-32
2017-06-19,17,174,-101,-39
2017-06-21,188,187,-65,-44
2017-06-26,203,100,-100,-36
2017-06-27,0,85,-51,-35
2017-06-28,753,139,-68,-37
2017-07-02,0,119,0,-28
2017-07-03,505,117,-71,-25
2017-07-04,334,128,-102,-33
2017-08-06,0,60,0,-0
2017-08-20,0,30,0,-0
2017-09-04,0,15,0,-0
2017-09-08,-6,0,-48,-3
2017-09-10,0,0,-33,-6
2017-09-11,1476,105,-36,-8
2017-09-12,41,107,-65,-13
2017-09-14,6,108,-52,-17
2017-09-15,2,108,-30,-19
2017-09-18,0,100,-128,-28
2017-09-24,0,90,-35,-25
2017-09-25,-345,10,-35,-25
2017-09-26,73,12,-109,-28
2017-09-27,1,30,-93,-34
2017-09-29,-37,27,-110,-36
2017-10-01,-1221,-54,-165,-48
2017-10-02,93,126,-52,-43
2017-10-03,447,158,-90,-49
2017-10-04,-157,147,-51,-53
2017-11-11,-38,-2,-100,-7
2017-11-12,4,3,-17,-8
2017-11-18,-28,1,-63,-13
2017-11-19,1,5,-32,-15
2017-11-21,76,10,-47,-19
2017-11-24,499,43,-51,-22
2017-11-25,-392,15,-54,-19
2017-11-26,687,120,-238,-35
2017-12-10,0,0,-45,-3
2017-12-11,0,0,-105,-11
2017-12-12,0,0,-225,-27
2017-12-13,0,0,-270,-46
2017-12-14,0,0,-270,-65
2017-12-16,0,0,-60,-70
2017-12-19,0,0,-85,-76
2017-12-20,-10,0,-74,-81
2017-12-21,22,2,-99,-88
2017-12-25,0,2,-44,-81
2017-12-26,-15,1,-48,-68
2018-01-01,154,14,-242,-42
2018-01-03,0,12,-119,-39
2018-01-04,38,14,-71,-37
2018-01-05,5,15,-69,-42
2018-01-06,0,15,-130,-52
2018-01-07,0,10,-60,-56
2018-01-08,0,14,-221,-69
2018-01-10,0,14,-35,-68
2018-01-12,0,14,-116,-76
2018-01-15,0,3,-141,-69
2018-01-16,0,3,-178,-81
2018-01-17,0,0,-115,-81
2018-01-18,0,0,-100,-83
2018-01-19,0,0,-109,-86
2018-01-21,620,44,-34,-75
2018-01-22,913,109,-189,-73
2018-01-23,2022,253,-65,-77
2018-01-24,0,253,-117,-83
2018-01-26,0,253,-59,-79
2018-01-29,0,253,-62,-73
2018-01-30,0,253,-68,-66
2018-01-31,426,284,-194,-71
2018-02-01,482,318,-122,-73
2018-02-05,-96,58,-43,-52
2018-02-06,-209,56,-95,-54
2018-02-07,7,87,-62,-50
2018-02-08,66,91,-44,-54
2018-02-09,56,95,-82,-55
2018-02-12,-4,95,-60,-55
2018-02-21,23,5,-40,-16
2018-02-24,0,1,-90,-14
2018-02-25,0,1,-120,-22
2018-02-27,0,1,-80,-24
2018-03-01,0,1,-30,-26
2018-03-03,0,1,-45,-29
2018-03-04,0,1,-169,-41
2018-03-05,0,1,-127,-50
2018-03-07,0,0,-200,-62
2018-03-08,0,0,-135,-71
2018-03-09,0,0,-267,-90
2018-03-10,645,0,-88,-90
2018-03-11,0,46,-165,-93
2018-03-12,0,46,-118,-102
2018-03-13,0,46,-380,-123
2018-03-14,0,46,-373,-150
2018-03-15,0,46,-176,-160
2018-03-16,0,46,-55,-164
2018-03-19,0,46,-177,-152
2018-03-20,-42,43,-68,-157
2018-03-22,-6,48,-40,-136
2018-03-28,790,59,-142,-47
2018-03-29,54,48,-32,-37
2018-04-02,93,67,-31,-22
2018-04-03,202,81,-53,-21
2018-04-05,374,108,-103,-26
2018-04-06,77,113,-29,-28
2018-04-07,56,117,-38,-31
2018-04-09,0,61,-81,-36
2018-04-10,0,61,-89,-43
2018-04-11,50,60,-48,-36
2018-04-24,13,0,-50,-7
2018-04-25,615,44,-112,-12
2018-04-26,72,50,-75,-17
2018-04-30,-29,47,-68,-22
2018-06-02,0,0,-80,-6
2018-06-09,0,0,-304,-27
2018-07-03,0,0,-180 ,-13
2018-07-05,0,0,-90,-19
2018-07-06,0,0,-75,-25
2018-07-08,0,0,-180,-38
2018-07-09,0,0,-47,-41
2018-07-10,0,0,-67,-46
2018-07-11,0,0,-108,-53
2018-07-12,0,0,-240,-71
2018-07-13,0,0,-124,-79
2018-07-14,0,0,-129,-89
2018-07-16,0,0,-90,-95
2018-07-17,13,0,-120,-91
2018-07-19,209,15,-60,-89
2018-07-20,0,0,-131,-93
2018-07-26,353,41,-230,-63
2018-07-27,343,24,-172,-67
2018-07-30,1,64,-103,-58
2018-08-10,0,0,-24,-9
2018-08-11,-155,-11,-45,-12
2018-08-16,0,11,-80,-11
2018-08-18,0,11,-95,-17
2018-08-20,0,11,-48,-21
2018-08-21,-128,1,-36,-23
2018-08-22,30,22,-31,-26
2018-08-24,64,15,-116,-32
2018-08-26,-33,13,-70,-34
2018-08-27,325,41,-58,-38
2018-08-31,501,65,-112,-40
2018-09-01,-467,43,-43,-37
2018-09-05,49,102,-58,-33
2018-09-07,146,106,-88,-31
2018-09-08,115,114,-77,-36
2018-09-15,0,22,-136,-26
2018-09-16,0,22,-166,-38
2018-09-21,0,0,-110,-35
2018-09-22,-30,-2,-56,-33
2018-09-23,0,2,-153,-44
2018-09-25,0,2,-37,-47
2018-09-29,0,2,-81,-43
2018-10-07,0,0,-125,-17
2018-10-08,0,0,-169,-29
2018-10-09,0,0,-95,-34
2018-10-13,0,0,-168,-40
2018-10-19,0,0,-111,-48
2018-10-20,0,0,-101,-55
2018-10-22,0,0,-60,-38
2018-10-24,0,0,-75,-37
2018-10-26,0,0,-30,-39
2018-10-29,0,0,-60,-31
2018-10-31,0,0,-46,-35
2018-11-01,0,0,-30,-37
2018-11-10,0,0,-94,-16
2018-11-12,0,0,-73,-17
2018-11-13,0,0,-48,-21
2018-11-14,0,0,-20,-19
2018-11-15,0,0,-20,-18
2018-11-16,0,0,-106,-26
2018-11-17,2181,155,-146,-36
2018-11-20,0,155,-75,-42
2018-11-23,545,194,-52,-45
2018-11-24,2445,369,-169,-51
2018-11-26,1034,443,-95,-52
2018-11-28,9,443,-52,-51
2018-11-29,890,507,-128,-59
2018-11-30,20,353,-78,-57
2018-12-01,0,353,-25,-48
2018-12-04,-1008,281,-70,-48
2018-12-07,938,278,-92,-51
2018-12-11,0,204,-135,-41
2018-12-16,0,139,-73,-26
2018-12-17,0,67,-70,-31
2018-12-18,0,67,-45,-30
2018-12-20,367,26,-90,-36
2018-12-21,970,95,-82,-35
2018-12-22,305,117,-20,-37
2018-12-23,395,145,-61,-41
2018-12-25,989,216,-60,-36
2018-12-26,0,216,-61,-40
2018-12-27,528,253,-79,-46
2019-01-05,0,108,-46,-22
2019-01-06,0,108,-136,-27
2019-01-07,715,88,-109,-35
2019-01-09,0,51,-73,-32
2019-01-10,0,51,-60,-30
2019-01-11,0,51,-47,-34
2019-01-12,0,51,-271,-53
2019-01-13,0,51,-87,-59
2019-01-14,0,51,-273,-79
2019-01-16,0,51,-219,-94
2019-01-17,0,51,-191,-108
2019-01-18,0,51,-157,-119
2019-01-19,0,51,-192,-130
2019-01-20,0,51,-32,-122
2019-01-21,0,51,-66,-119
2019-01-22,0,0,-135,-129
2019-01-23,0,0,-97,-131
2019-01-24,0,0,-73,-131
2019-01-25,0,0,-191,-142
2019-01-26,0,0,-22,-124
2019-01-28,22,1,-122,-107
2019-01-30,2394,172,-60,-96
2019-01-31,0,172,-165,-94
2019-02-01,3370,413,-126,-92
2019-02-03,1838,544,-131,-85
2019-02-04,8290,1136,-190,-94
2019-02-06,0,1136,-86,-83
2019-02-07,496,1172,-35,-81
2019-02-08,0,1172,-121,-76
2019-02-09,0,1172,-58,-78
2019-02-12,0,999,-60,-74
2019-02-16,0,627,-217,-64
2019-02-19,0,35,-26,-43
2019-02-20,0,0,-51,-41
2019-02-21,1128,80,-127,-47
2019-02-22,0,80,-76,-44
2019-02-24,0,80,-152,-51
2019-02-26,0,80,-72,-52
2019-02-27,0,80,-59,-56
2019-02-28,0,80,-84,-62
2019-03-01,74,85,-54,-66
2019-03-02,0,85,-37,-53
2019-03-05,0,85,-107,-59
2019-03-07,1,5,-65,-50
2019-03-11,184,18,-58,-38
2019-03-12,275,38,-134,-43
2019-03-13,13,39,-36,-41
2019-03-19,750,87,-112,-29
2019-03-20,40,90,-129,-38
2019-03-21,0,90,-74,-39
2019-03-22,0,90,-54,-43
2019-03-23,0,90,-88,-49
2019-03-24,0,77,-209,-64
2019-03-26,227,72,-151,-61
2019-03-27,0,72,-211,-73
2019-03-28,9,73,-85,-80
2019-03-29,181,86,-127,-89
2019-03-30,485,120,-362,-114
2019-04-01,438,98,-214,-130
2019-04-02,523,133,-230,-138
2019-04-03,307,155,-144,-139
2019-04-04,291,175,-185,-147
2019-04-05,988,246,-135,-153
2019-04-06,1048,321,-202,-161
2019-04-07,708,371,-278,-166
2019-04-08,447,387,-117,-174
2019-04-09,594,429,-151,-174
2019-04-10,1012,501,-318,-182
2019-04-11,985,559,-123,-185
2019-04-12,908,589,-143,-186
2019-04-13,1542,699,-148,-171
2019-04-14,395,658,-33,-173
2019-04-15,2231,818,-287,-178
2019-04-30,602,43,-276,-20
2019-05-01,352,68,-157,-31
2019-05-02,282,88,-158,-42
2019-05-03,1090,166,-256,-61
2019-05-04,349,191,-96,-67
2019-05-05,418,220,-131,-77
2019-05-06,1027,300,-210,-92
2019-05-07,1255,383,-207,-107
2019-05-08,652,430,-162,-118
2019-05-09,1008,502,-196,-132
2019-05-10,34,504,-16,-133
2019-05-11,714,555,-123,-142
2019-05-13,593,555,-316,-165
2019-05-14,1058,605,-261,-164
2019-05-15,776,641,-118,-161
2019-05-16,162,574,-70,-154
2019-05-17,374,576,-73,-141
2019-05-20,1392,483,-138,-120
2019-05-28,74,131,-75,-34
2019-05-29,552,170,-108,-33
2019-05-30,772,199,-132,-38
2019-05-31,984,269,-205,-47
2019-06-01,965,239,-253,-65
2019-06-02,477,273,-164,-77
2019-06-05,99,280,-97,-74
2019-06-06,546,319,-233,-91
2019-06-07,238,336,-117,-99
2019-06-08,33,338,-75,-104
2019-06-09,18,334,-16,-105
2019-06-11,89,301,-144,-110
2019-06-12,146,256,-121,-111
2019-06-14,46,120,-59,-91
2019-06-15,-3189,314,-195,-87
2019-06-17,565,354,-170,-88
2019-06-18,1805,476,-116,-96
2019-06-19,1278,512,-155,-100
2019-06-20,613,555,-122,-92
2019-06-21,-6,553,-132,-93
2019-06-22,-3,552,-77,-93
2019-06-23,-116,554,-116,-101
2019-06-24,64,548,-87,-107
2019-06-25,137,558,-116,-105
2019-06-26,0,458,-33,-98
2019-06-27,210,342,-67,-103
2019-06-28,41,345,-136,-109
2019-06-29,447,337,-55,-99
2019-07-01,924,274,-405,-116
2019-07-03,0,274,-330,-120
2019-07-05,1242,218,-274,-121
2019-07-06,0,218,-60,-120
2019-07-09,206,219,-6,-98
2019-07-10,217,219,-138,-105
2019-07-11,199,231,-156,-111
2019-07-12,0,199,-21,-103
2019-07-13,939,200,-213,-115
2019-07-15,485,294,-276,-105
2019-07-16,988,305,-287,-126
2019-07-18,457,300,-161,-114
2019-07-19,1037,300,-124,-103
2019-07-21,361,334,-94,-105
2019-07-22,1199,420,-401,-134
2019-07-23,1703,526,-364,-160
2019-07-24,1004,583,-206,-165
2019-07-25,902,648,-283,-174
2019-07-26,1476,686,-233,-189
2019-07-29,238,600,-40,-157
2019-08-01,1379,590,-92,-131
2019-08-02,76,569,-47,-126
2019-08-04,0,484,-29,-121
2019-08-05,173,303,-91,-99
2019-08-06,175,251,-80,-79
2019-08-09,178,158,-89,-33
2019-08-10,1535,268,-246,-51
2019-08-12,72,256,-78,-54
2019-08-13,969,325,-208,-69
2019-08-17,32,199,-35,-61
2019-08-19,170,211,-92,-59
2019-08-20,1035,285,-257,-72
2019-08-21,391,313,-39,-75
2019-08-22,452,332,-102,-82
2019-08-23,1144,304,-157,-87
2019-08-25,524,336,-78,-75
2019-08-26,1036,341,-269,-88
2019-08-27,712,392,-120,-82
2019-08-28,458,425,-73,-87
2019-08-29,998,496,-108,-95
2019-08-30,2396,665,-245,-113
2019-08-31,800,722,-152,-121
2019-09-01,24,712,-24,-123
2019-09-02,479,672,-85,-122
2019-09-04,0,612,-193,-115
2019-09-05,395,558,-154,-118
2019-09-06,-12,559,-96,-114
2019-09-08,193,461,-136,-118
2019-09-09,12,411,-12,-100
2019-09-10,202,393,-32,-94
2019-09-12,1070,227,-175,-93
2019-09-13,527,208,-114,-84
2019-09-14,773,261,-102,-80
2019-09-15,562,267,-135,-88
2019-09-18,293,260,-27,-70
2019-09-19,682,308,-86,-65
2019-09-20,846,368,-133,-68
2019-09-21,680,403,-131,-77
2019-09-24,360,413,-86,-71
2019-09-26,813,357,-74,-63
2019-09-27,50,306,-39,-58
2019-09-28,921,331,-118,-59
2019-10-01,801,368,-150,-60
2019-10-05,0,210,-92,-40
2019-10-06,0,210,-138,-50
2019-10-07,0,184,-157,-61
2019-10-08,0,184,-117,-63
2019-10-10,0,123,-283,-78
2019-10-11,393,85,-214,-91
2019-10-12,835,144,-328,-106
2019-10-13,216,160,-215,-121
2019-10-16,565,143,-95,-117
2019-10-18,0,143,-92,-124
2019-10-19,604,186,-228,-133
2019-10-20,0,228,-98,-131
2019-10-21,586,228,-65,-124
2019-10-23,1045,303,-140,-126
2019-10-24,502,310,-74,-111
2019-10-25,1005,323,-152,-106
2019-10-26,477,341,-46,-86
2019-10-27,1033,415,-122,-79
2019-10-30,435,406,-114,-81
2019-10-31,645,452,-112,-89
2019-11-01,749,462,-145,-93
2019-11-02,1265,553,-158,-88
2019-11-04,362,354,-24,-78
2019-11-08,-105,328,-93,-58
2019-11-11,1008,326,-97,-53
2019-11-12,162,306,-91,-60
2019-11-15,42,119,-36,-36
2019-11-16,0,119,-96,-31
2019-11-17,-19,95,-156,-42
2019-11-18,0,95,-24,-42
2019-11-19,65,100,-194,-56
2019-11-21,-371,119,-7,-57
2019-11-22,83,125,-83,-56
2019-11-23,-20,126,-121,-65
2019-11-24,0,54,-139,-75
2019-11-25,499,78,-69,-73
2019-11-26,549,117,-64,-71
2019-11-27,0,117,-24,-72
2019-11-28,0,114,-67,-77
2019-11-29,653,161,-118,-83
2019-11-30,511,196,-93,-83
2019-12-01,1053,271,-102,-79
2019-12-02,276,286,-28,-79
2019-12-04,517,297,-43,-68
2019-12-05,577,332,-63,-72
2019-12-06,527,368,-90,-73
2019-12-07,811,426,-65,-66
2019-12-07,223,442,-26,-66
2019-12-12,608,364,-61,-45
2019-12-13,513,364,-44,-39
2019-12-14,161,244,-47,-36
2019-12-18,68,207,-46,-27
2019-12-19,365,196,-112,-30
2019-12-21,1012,194,-129,-31
2019-12-22,713,245,-105,-39
2019-12-27,-9,154,-119,-40
2019-12-29,677,172,-83,-42
2020-01-02,69,104,-38,-34
2020-01-04,7,5,-54,-29
2020-01-15,6,0,-20,-8
2020-01-17,351,25,-85,-11
2020-01-22,0,25,-169,-20
2020-01-23,0,25,-132,-29
2020-01-24,-19,26,-57,-33
2020-01-25,31,29,-169,-45
2020-01-26,4,29,-38,-48
2020-01-29,659,76,-84,-52
2020-01-31,230,67,-30,-49
2020-02-05,154,78,-29,-39
2020-02-06,24,78,-62,-34
2020-02-07,283,96,-105,-37
2020-02-10,0,96,-87,-28
2020-02-11,0,49,-51,-32
2020-02-13,0,32,-27,-28
2020-02-14,0,32,-99,-33
2020-02-15,0,32,-146,-43
2020-02-16,0,32,-15,-44
2020-02-17,296,43,-94,-51
2020-02-20,213,36,-82,-50
2020-02-21,303,58,-81,-49
2020-02-23,630,103,-239,-66
2020-02-24,624,147,-40,-62
2020-02-25,319,170,-50,-62
2020-02-27,939,237,-75,-66
2020-02-28,957,305,-115,-67
2020-03-05,516,284,-97,-50
2020-03-06,321,307,-124,-53
2020-03-08,-405,246,-26,-38
2020-03-12,225,104,-109,-34
2020-03-13,1,104,-108,-33
2020-03-21,98,23,-57,-21
2020-03-25,0,7,-43,-23
2020-03-27,0,7,-38,-10
2020-03-31,29,9,-44,-13
2020-04-01,71,14,-40,-16
2020-04-03,84,13,-58,-20
2020-04-04,304,34,-97,-23
2020-04-05,159,46,-53,-27
2020-04-08,6,46,-40,-26
2020-04-10,2,46,-59,-28
2020-04-11,236,63,-140,-38
2020-04-12,392,91,-79,-44
2020-04-13,540,128,-103,-51
2020-04-14,146,133,-89,-54
2020-04-18,49,97,-85,-46
2020-04-19,330,121,-118,-51
2020-04-20,366,147,-68,-56
2020-04-21,501,183,-70,-61
2020-04-22,683,231,-98,-65
2020-04-23,547,270,-71,-70
2020-04-24,516,290,-91,-72
2020-04-25,1028,336,-215,-78
2020-04-26,256,315,-66,-77
2020-04-27,607,348,-82,-75
2020-04-28,382,376,-84,-75
2020-04-30,47,379,-24,-77
2020-05-01,580,417,-152,-87
2020-05-02,197,407,-100,-89
2020-05-03,478,415,-123,-89
2020-05-05,504,367,-101,-86
2020-05-06,661,375,-61,-84
2020-05-07,348,363,-82,-84
2020-05-08,531,327,-45,-81
2020-05-09,301,331,-47,-69
2020-05-10,483,295,-99,-71
2020-05-12,378,322,-61,-64
2020-05-13,338,342,-67,-69
2020-05-15,281,307,-36,-59
2020-05-16,202,287,-49,-55
2020-05-17,318,227,-41,-49
2020-05-20,605,245,-115,-46
2020-05-21,68,212,-23,-42
2020-05-22,859,252,-102,-46
2020-05-23,720,269,-86,-49
2020-05-25,157,253,-48,-45
2020-05-26,504,265,-163,-52
2020-05-27,559,305,-138,-57
2020-05-28,0,285,-39,-60
2020-05-29,0,285,-54,-61
2020-06-02,24,206,-29,-57
2020-06-03,-25,203,-26,-51
2020-06-04,139,152,-53,-53
2020-06-05,0,100,-182,-58
2020-06-06,927,166,-188,-66
2020-06-09,343,104,-69,-56
2020-06-11,-135,113,-89,-49
2020-06-12,0,113,-73,-51
2020-06-16,93,116,-92,-55
2020-06-18,0,107,-20,-51
2020-06-24,-5,7,-83,-26
2020-06-25,-36,9,-71,-24
2020-06-29,14,3,-17,-20
2020-06-30,103,11,-53,-17
2020-07-01,162,22,-72,-23
2020-07-05,395,51,-61,-26
2020-07-07,0,50,-45,-29
2020-07-08,-345,72,-85,-29
2020-07-11,353,98,-55,-28
2020-07-12,495,132,-91,-34
2020-07-15,107,121,-69,-29
2020-07-18,162,104,-118,-37
2020-07-20,108,112,-47,-36
2020-07-22,0,87,-108,-35
2020-07-25,0,26,-74,-36
2020-07-27,0,19,-21,-31
2020-07-31,233,24,-91,-33
2020-08-01,81,30,-61,-29
2020-08-02,635,67,-100,-36
2020-08-03,1082,145,-128,-42
2020-08-04,435,176,-91,-48
2020-08-05,1209,262,-107,-48
2020-08-06,313,284,-63,-53
2020-08-08,1297,377,-83,-53
2020-08-09,222,393,-33,-56
2020-08-11,483,427,-61,-58
2020-08-12,106,435,-12,-59
2020-08-13,221,434,-62,-64
2020-08-14,191,319,-84,-63
2020-08-17,135,298,-62,-47
2020-08-18,354,237,-20,-42
2020-08-19,822,273,-63,-39
2020-08-21,101,188,-26,-36
2020-08-24,357,155,-52,-32
2020-08-26,201,154,-70,-31
2020-08-28,505,155,-95,-28
2020-09-05,252,93,-32,-18
2020-09-06,1127,148,-102,-25
2020-09-07,372,175,-34,-24
2020-09-08,253,179,-83,-30
2020-09-09,31,177,-33,-27
2020-09-10,749,198,-82,-33
2020-09-11,933,265,-121,-35
2020-09-12,0,200,-25,-37
2020-09-13,117,273,-123,-45
2020-09-16,205,288,-178,-58
2020-09-17,381,315,-136,-68
2020-09-18,607,341,-109,-76
2020-09-20,0,234,-37,-69
2020-09-21,0,215,-480,-101
2020-09-22,0,213,-221,-110
2020-09-23,0,160,-167,-120
2020-09-24,218,109,-240,-131
2020-09-25,0,109,-209,-138
2020-09-26,0,100,-105,-143
2020-09-27,0,58,-99,-142
2020-09-29,0,58,-450,-174
2020-09-30,0,58,-120,-170
2020-10-01,0,15,-39,-163
2020-10-07,0,0,-121,-99
2020-10-09,0,0,-43,-70
2020-10-10,0,0,-10,-63
2020-10-15,37,2,-26,-14
2020-10-16,0,2,-192,-28
2020-10-19,0,2,-178,-41
2020-10-23,153,13,-54,-33
2020-10-24,429,44,-103,-40
2020-10-26,189,57,-15,-41
2020-10-27,368,84,-74,-46
2020-10-28,0,81,-60,-50
2020-10-29,479,115,-55,-52
2020-10-30,0,115,-209,-53
2020-10-31,0,115,-85,-60
2020-11-01,0,115,-184,-73
2020-11-02,0,115,-250,-78
2020-11-07,0,74,-168,-79
2020-11-11,0,0,-210,-83
2020-11-12,0,0,-90,-85
2020-11-13,0,0,-287,-91
2020-11-14,0,0,-228,-101
2020-11-16,0,0,-97,-77
2020-11-17,0,0,-100,-84
2020-11-18,0,0,-25,-86
2020-11-20,0,0,-133,-96
2020-11-21,0,0,-85,-90
2020-11-22,0,0,-104,-97
2020-11-23,0,0,-150,-108
2020-11-24,0,0,-215,-123
2020-11-25,0,0,-194,-122
2020-11-26,0,0,-164,-127
2020-11-27,0,0,-92,-113
2020-11-28,0,0,-150,-108
2020-11-30,0,0,-198,-115
2020-12-01,0,0,-78,-113
2020-12-02,0,0,-261,-130
2020-12-04,0,0,-209,-136
2020-12-06,0,0,-100,-129
2020-12-07,0,0,-186,-132
2020-12-08,0,0,-97,-124
2020-12-11,0,0,-282,-112
2020-12-12,0,0,-12,-102
2020-12-13,0,0,-194,-116
2020-12-14,0,0,-199,-116
2020-12-15,0,0,-482,-144
2020-12-16,0,0,-107,-133
2020-12-17,0,0,-125,-142
2020-12-18,0,0,-334,-151
2020-12-21,4,0,-26,-133
2020-12-23,0,0,-55,-130
2020-12-26,0,0,-177,-121
2020-12-27,2000,0,-36,-110
2020-12-29,2000,0,-74,-67
2020-12-30,2339,453,-142,-69
2021-01-04,917,518,-64,-39
2021-01-05,0,518,-56,-43
2021-01-10,0,375,-49,-28
2021-01-11,0,232,-56,-32
2021-01-12,0,65,-103,-34
2021-01-16,0,65,-126,-32
2021-01-17,0,0,-100,-40
2021-01-19,0,0,-23,-33
2021-01-21,0,0,-86,-39
2021-01-25,0,0,-82,-37
2021-01-26,0,0,-190,-43
2021-01-27,24,1,-56,-47
2021-01-29,117,10,-72,-53
2021-01-30,0,10,-13,-44
2021-02-01,55,14,-26,-39
2021-02-02,190,27,-156,-49
2021-02-03,35,30,-17,-50
2021-02-04,33,32,-29,-46
2021-02-05,1020,105,-115,-54
2021-02-06,520,142,-73,-59
2021-02-08,505,178,0,-60
2021-02-08,517,215,-87,-60
2021-02-09,203,228,-75,-51
2021-02-10,466,261,-180,-60
2021-02-13,626,297,-157,-65
2021-02-14,423,324,-122,-74
2021-02-16,351,333,-60,-65
2021-02-17,23,332,-26,-66
2021-02-20,353,247,-72,-56
2021-02-21,350,199,-52,-59
2021-02-22,0,185,-10,-54
2021-02-23,243,169,-87,-55
2021-02-24,800,226,-66,-47
2021-02-27,577,192,-113,-43
2021-03-01,658,214,-84,-41
2021-03-02,374,239,-35,-39
2021-03-03,124,248,-21,-39
2021-03-04,581,290,-118,-47
2021-03-05,603,307,-98,-54
2021-03-06,405,311,-86,-55
2021-03-07,507,348,-60,-56
2021-03-08,493,365,-46,-58
2021-03-09,53,312,-83,-58
2021-03-10,270,331,-73,-58
2021-03-11,0,331,-55,-62
2021-03-12,940,357,-134,-72
2021-03-14,134,320,-17,-65
2021-03-15,945,361,-142,-69
2021-03-16,590,394,-47,-70
2021-03-17,0,352,-134,-78
2021-03-19,783,336,-72,-68
2021-03-20,612,344,-60,-66
2021-03-22,493,340,-77,-64
2021-03-23,666,301,-121,-67
2021-03-26,182,305,-42,-51
2021-03-28,1010,309,-103,-57
2021-03-29,299,288,-42,-50
2021-03-29,0,288,-42,-50
2021-04-01,0,233,-590,-79
2021-04-03,0,189,-131,-79
2021-04-04,0,154,-180,-92
2021-04-06,391,134,-137,-88
2021-04-09,498,157,-61,-89
2021-04-10,476,97,-514,-126
2021-04-13,170,109,-23,-117
2021-04-15,70,114,-26,-77
2021-04-17,325,137,-26,-69
2021-04-18,482,172,-106,-64
2021-04-19,58,148,-11,-65
2021-04-20,362,174,-63,-59
2021-04-21,9,175,-132,-69
2021-04-22,0,105,-65,-73
2021-04-25,155,116,-62,-37
2021-04-26,241,121,-64,-41
2021-05-07,155,39,-88,-15
2021-05-11,364,37,-97,-13
2021-05-12,767,91,-74,-19
2021-05-13,362,117,-60,-23
2021-05-15,132,127,-53,-27
2021-05-16,862,188,-73,-32
2021-05-18,418,218,-68,-37
2021-05-22,0,207,-31,-33
2021-05-23,977,300,-117,-41
2021-05-25,386,224,-63,-37
2021-05-25,374,250,-38,-37
2021-05-26,661,272,-75,-37
2021-05-27,341,296,-40,-35
2021-05-28,219,302,-34,-38
2021-05-29,1643,358,-68,-39
2021-05-30,-442,390,-53,-37
2021-06-03,19,361,-20,-34
2021-06-04,0,361,-27,-36
2021-06-05,0,291,-97,-41
2021-06-06,501,327,-62,-37
2021-06-07,0,273,-60,-41
2021-06-10,-9,69,-62,-35
2021-06-15,6,38,-60,-28
2021-06-17,1014,109,-178,-39
2021-06-18,715,160,-64,-42
2021-06-20,230,141,-96,-37
2021-06-21,639,186,-176,-45
2021-07-06,739,52,-96,-7
2021-07-07,660,99,-54,-11
2021-07-08,101,107,-59,-15
2021-07-09,40,110,-59,-19
2021-07-12,1435,212,-171,-31
2021-07-13,436,243,-52,-35
2021-07-16,107,251,-45,-38
2021-07-19,195,212,-98,-45
2021-07-20,665,212,-89,-45
2021-07-21,763,260,-191,-55
2021-07-22,1005,329,-164,-62
2021-07-23,1088,406,-177,-71
2021-07-25,-703,354,-221,-86
2021-07-28,272,342,-240,-88
2021-08-07,196,33,-68,-38
2021-08-08,602,76,-122,-31
2021-08-09,326,99,-54,-35
2021-08-11,0,80,-90,-24
2021-08-13,352,105,-102,-31
2021-08-14,250,123,-51,-35
2021-08-20,305,131,-86,-41
2021-08-23,154,32,-41,-26
2021-08-31,279,52,-40,-12
2021-09-04,230,47,-48,-9
2021-09-05,0,36,-112,-17
2021-09-12,564,76,-100,-21
2021-09-18,225,56,-82,-21
2021-09-19,319,79,-210,-28
2021-09-20,219,94,-99,-35
2021-09-22,237,111,-160,-47
2021-09-23,368,138,-44,-50
2021-09-24,660,185,-46,-53
2021-09-25,1044,219,-186,-66
2021-09-26,303,241,-67,-64
2021-09-27,105,248,-18,-65
2021-09-28,424,278,-61,-70
2021-09-30,554,318,-61,-74
2021-10-01,1109,381,-111,-82
2021-10-02,451,390,-33,-78
2021-10-03,107,383,-25,-65
2021-10-04,407,412,-61,-62
2021-10-06,463,401,-76,-56
2021-10-07,726,406,-95,-60
2021-10-08,716,383,-60,-61
2021-10-09,342,386,-118,-56
2021-10-12,543,387,-63,-50
2021-10-13,902,332,-130,-60
2021-10-14,229,428,-23,-57
2021-10-16,1130,389,-121,-55
2021-10-17,260,379,-36,-56
2021-10-18,513,416,-104,-59
2021-10-19,389,410,-50,-63
2021-10-21,701,357,-76,-56
2021-10-24,22,334,-22,-45
2021-10-25,241,313,-65,-49
2021-10-27,573,273,-64,-40
2021-10-28,543,312,-160,-50
2021-10-31,334,200,-63,-43
2021-11-01,312,194,-66,-40
2021-11-02,606,238,-65,-42
2021-11-03,501,223,-67,-46
2021-11-04,89,230,-148,-51
2021-11-05,973,280,-73,-57
2021-11-12,113,209,-72,-40
2021-11-13,137,195,-14,-41
2021-11-15,64,134,-11,-32
2021-11-19,353,47,-72,-12
2021-11-22,502,83,-71,-17
2021-11-23,386,111,-83,-23
2021-11-24,1174,194,-115,-31
2021-11-26,1244,265,-144,-36
2021-11-28,137,271,-45,-39
2021-11-29,144,281,-112,-46
2021-11-30,35,283,-61,-50
2021-12-01,582,325,-83,-56
2021-12-02,531,338,-98,-63
2021-12-04,701,388,-82,-64
2021-12-05,608,395,-60,-68
2021-12-09,1186,280,-135,-59
2021-12-12,0,260,-92,-52
2021-12-13,1587,371,-199,-58
2021-12-14,528,367,-190,-67
2021-12-15,1646,446,-131,-71
2021-12-16,889,510,-73,-69
2021-12-19,479,451,-27,-61
2021-12-21,388,61,-24,-62
2021-12-29,243,79,-71,-14
2021-12-31,254,63,-96,-16
2022-01-01,381,90,-75,-21
2022-01-06,-6,63,-72,-22
2022-01-08,356,88,-51,-26
2022-01-14,0,25,-96,-21
2022-01-15,4,26,-114,-24
2022-01-17,82,32,-83,-30
2022-01-18,699,81,-70,-35
2022-01-20,717,132,-68,-34
2022-01-21,372,133,-38,-37
2022-01-22,155,144,-68,-38
2022-01-24,70,149,-24,-40
2022-01-27,411,179,-34,-43
2022-01-28,3,179,-32,-38
2022-01-29,1039,253,-80,-36
2022-01-30,145,257,-0,-36
2022-01-31,970,277,-116,-38
2022-02-03,1108,278,-126,-37
2022-02-06,59,266,-28,-31
2022-02-07,24,268,-9,-30
2022-02-08,161,280,-40,-33
2022-02-09,436,281,-61,-38
2022-02-10,255,299,-60,-39
2022-02-12,415,244,-88,-38
2022-02-13,700,225,-72,-43
2022-02-14,436,256,-42,-38
2022-02-15,286,277,-61,-42
2022-02-18,1118,277,-87,-39
2022-02-19,5,274,-10,-40
2022-02-20,625,316,-79,-44
2022-02-21,500,341,-68,-48
2022-02-22,72,315,-66,-50
2022-02-23,618,341,-43,-48
2022-02-24,918,406,-64,-49
2022-02-26,705,377,-89,-49
2022-02-27,109,354,-49,-47
2022-03-05,434,239,-52,-36
2022-03-06,214,219,-19,-32
2022-03-08,681,218,-89,-29
2022-03-09,-166,164,-40,-29
2022-03-10,260,183,-62,-29
2022-03-12,735,177,-82,-28
2022-03-16,0,177,-54,-28
2022-03-23,0,0,-43,-17
2022-04-02,1068,76,-277,-23
2022-04-04,76,81,-85,-29
2022-04-05,382,109,-165,-41
2022-04-06,33,111,-62,-42
2022-04-07,1307,204,-176,-55
2022-04-08,423,234,-129,-64
2022-04-11,2258,396,-111,-72
2022-04-12,-232,412,-64,-76
2022-04-13,0,412,-63,-81
2022-04-14,0,412,-63,-85
2022-04-16,187,349,-38,-68
2022-04-17,230,360,-60,-73
2022-04-19,316,353,-61,-59
2022-04-20,160,271,-35,-57
2022-04-21,573,282,-81,-50
2022-04-22,0,282,-76,-47
2022-04-23,0,282,-52,-50
2022-04-25,207,119,-60,-47
2022-04-26,708,170,-85,-48
2022-04-27,455,202,-35,-46
2022-04-28,466,235,-76,-47
2022-04-29,702,272,-105,-55
2022-04-30,0,256,-128,-61
2022-05-01,0,256,-320,-80
2022-05-02,0,233,-130,-89
2022-05-03,0,222,-337,-109
2022-05-04,344,205,-61,-110
2022-05-05,289,226,-72,-110
2022-05-06,202,240,-28,-106
2022-05-08,1027,299,-103,-110
2022-05-09,113,257,-32,-108
2022-05-12,235,200,-21,-96
2022-05-13,280,161,-27,-90
2022-05-17,435,184,-106,-32
2022-05-18,936,230,-142,-38
2022-05-19,418,246,-79,-38
2022-05-20,774,301,-90,-43
2022-05-21,484,262,-201,-57
2022-05-22,269,273,-28,-52
2022-05-25,0,256,-71,-55
2022-05-26,88,243,-18,-54
2022-06-01,0,115,-60,-39
2022-06-07,350,31,-89,-17
2022-06-08,155,36,-62,-16
2022-06-09,282,56,-64,-20
2022-06-11,229,72,-139,-30
2022-06-12,473,106,-66,-34
2022-06-13,79,112,-15,-35
2022-06-14,935,178,-120,-44
2022-06-15,237,195,-39,-42
2022-06-17,194,209,-34,-45
2022-06-18,639,255,-69,-50
2022-06-21,392,247,-66,-48
2022-06-22,1061,302,-111,-52
2022-06-23,898,366,-99,-54
2022-06-24,195,364,-150,-65
2022-06-25,318,353,-94,-62
2022-06-26,2,347,-25,-59
2022-06-27,127,290,-36,-60
2022-06-28,642,319,-118,-60
2022-06-29,1352,415,-197,-71
2022-06-30,437,433,-142,-82
2022-07-01,600,430,-60,-83
2022-07-02,768,485,-55,-82
2022-07-03,772,540,-100,-90
2022-07-04,1001,583,-193,-103
2022-07-07,1,430,-76,-89
2022-07-08,211,422,-120,-87
2022-07-09,258,440,-75,-86
2022-07-10,-11,432,-51,-87
2022-07-11,2,386,-21,-86
2022-07-12,3,290,-29,-80
2022-07-13,0,259,-21,-67
2022-07-16,-2,106,-19,-50
2022-07-19,2,35,-26,-31
2022-07-21,177,32,-66,-31
2022-07-22,155,25,-100,-29
2022-07-24,0,24,-29,-22
2022-07-25,0,24,-69,-26
2022-07-26,-1,24,-32,-26
2022-07-27,450,56,-109,-32
2022-07-28,268,75,-132,-42
2022-07-29,9,75,-94,-48
2022-07-31,176,88,-109,-55
2022-08-01,21,89,-30,-57
2022-08-02,2,89,-39,-58
2022-08-03,318,100,-119,-66
2022-08-04,228,105,-95,-68
2022-08-05,16,106,-27,-63
2022-08-06,299,127,-145,-74
2022-08-08,258,146,-79,-72
2022-08-09,481,148,-53,-74
2022-08-11,202,142,-52,-60
2022-08-13,63,134,-65,-58
2022-08-14,307,155,-106,-58
2022-08-15,407,184,-65,-60
2022-08-20,317,145,-50,-34
2022-08-21,1108,206,-123,-42
2022-08-23,411,201,-73,-38
2022-08-24,518,223,-71,-43
2022-08-25,335,247,-26,-41
2022-08-26,912,308,-95,-48
2022-08-27,205,300,-40,-46
2022-08-28,466,305,-151,-50
2022-08-29,294,326,-90,-51
2022-08-30,423,356,-82,-57
2022-08-31,426,386,-95,-64
2022-09-01,707,437,-119,-73
2022-09-02,661,461,-73,-78
2022-09-03,323,405,-68,-79
2022-09-04,510,442,-75,-76
2022-09-05,83,418,-71,-81
2022-09-06,161,393,-40,-78
2022-09-07,161,380,-114,-81
2022-09-08,163,327,-0,-80
2022-09-09,470,346,-80,-78
2022-09-10,616,357,-120,-84
2022-09-11,531,373,-63,-78
2022-09-12,630,388,-93,-78
2022-09-13,581,399,-66,-77
2022-09-14,237,366,-92,-77
2022-09-15,442,350,-64,-73
2022-09-16,537,335,-67,-72
2022-09-17,584,371,-115,-76
2022-09-18,891,428,-129,-80
2022-09-19,329,440,-48,-78
2022-09-20,393,457,-101,-82
2022-09-21,723,497,-105,-82
2022-09-23,653,466,-149,-87
2022-09-25,627,428,-61,-78
2022-09-26,734,439,-63,-76
2022-09-27,588,432,-68,-76
2022-09-28,285,453,-65,-74
2022-09-29,449,446,-63,-74
2022-09-30,539,443,-41,-72
2022-10-01,332,403,-77,-69
2022-10-02,298,401,-31,-62
2022-10-03,509,409,-61,-63
2022-10-04,534,396,-117,-64
2022-10-06,91,356,-108,-65
2022-10-07,172,368,-16,-55
2022-10-09,603,314,-116,-59
2022-10-10,1428,374,-147,-65
2022-10-11,507,390,-100,-67
2022-10-12,432,388,-33,-65
2022-10-13,748,403,-159,-72
2022-10-14,522,417,-80,-75
2022-10-15,727,448,-124,-78
2022-10-16,132,421,-48,-79
2022-10-20,270,383,-65,-63
2022-10-21,738,436,-111,-70
2022-10-22,553,432,-42,-73
2022-10-23,195,344,-23,-67
2022-10-25,0,277,-10,-50
2022-10-26,369,250,-122,-56
2022-10-27,84,219,-81,-50
2022-10-28,550,206,-119,-53
2022-10-29,0,206,-44,-48
2022-10-30,192,210,-29,-46
2022-10-31,1282,302,-206,-61
2022-11-01,-15,303,-183,-74
2022-11-02,0,284,-110,-82
2022-11-03,44,234,-74,-82
2022-11-04,0,195,-94,-81
2022-11-05,131,190,-63,-83
2022-11-06,212,205,-75,-86
2022-11-07,180,218,-69,-91
2022-11-08,425,222,-210,-106
2022-11-09,481,250,-36,-100
2022-11-11,64,216,-147,-96
2022-11-12,630,247,-39,-95
2022-11-14,1128,235,-167,-91
2022-11-16,1291,324,-103,-77
2022-11-17,114,332,-21,-73
2022-11-18,217,338,-127,-76
2022-11-19,293,344,-359,-97
2022-11-20,1608,446,-143,-102
2022-11-21,659,463,-174,-109
2022-11-22,308,450,-78,-100
2022-11-23,492,486,-97,-104
2022-11-26,788,492,-66,-95
2022-11-27,669,459,-43,-98
2022-11-28,658,506,-154,-98
2022-11-29,246,432,-33,-100
2022-12-04,358,251,-22,-48
2022-12-05,266,248,-30,-37
2022-12-06,595,255,-36,-34
2022-12-07,-2,255,-19,-29
2022-12-08,349,280,-74,-34
2022-12-09,476,258,-64,-39
2022-12-10,522,248,-64,-39
2022-12-12,592,225,-77,-30
2022-12-13,853,286,-70,-33
2022-12-14,255,304,-30,-35
2022-12-16,75,310,-67,-40
2022-12-17,191,298,-25,-41
2022-12-19,625,281,-119,-46
2022-12-20,292,302,-63,-48
2022-12-21,476,311,-54,-51
2022-12-22,610,320,-153,-56
2022-12-23,314,305,-105,-59
2022-12-25,403,292,-189,-68
2022-12-26,547,270,-97,-69
2022-12-27,637,297,-72,-70
2022-12-28,725,349,-97,-74
2022-12-29,24,346,-19,-76
2022-12-30,590,374,-64,-76
2022-12-31,539,413,-106,-81
2023-01-01,143,378,-24,-83
2023-01-02,1238,446,-166,-86
2023-01-03,557,451,-70,-87
2023-01-04,857,469,-72,-88
2023-01-06,823,505,-156,-81
2023-01-07,677,525,-80,-87
2023-01-08,347,511,-124,-82
2023-01-09,574,506,-71,-80
2023-01-10,509,491,-62,-79
2023-01-11,239,506,-25,-74
2023-01-12,108,472,-144,-83
2023-01-14,30,425,-71,-76
2023-01-15,-180,350,-124,-83
2023-01-16,603,353,-100,-79
2023-01-17,174,304,-141,-84
2023-01-18,846,365,-88,-85
2023-01-19,721,357,-82,-91
2023-01-20,1181,393,-118,-88
2023-01-21,698,418,-137,-92
2023-01-22,294,398,-65,-88
2023-01-23,214,377,-114,-91
2023-01-24,202,375,-103,-94
2023-01-25,329,390,-144,-102
2023-01-26,27,392,-65,-97
2023-01-28,135,387,-92,-99
2023-01-28,1586,500,-101,-99
2023-01-29,849,518,-81,-96
2023-01-30,413,535,-51,-92
2023-01-31,-2,475,-13,-83
2023-02-01,136,433,-26,-79
2023-02-02,1310,442,-168,-85
2023-02-03,1238,481,-136,-86
2023-02-04,74,465,-81,-82
2023-02-05,140,460,-176,-90
2023-02-06,27,447,-41,-85
2023-02-07,5,424,-18,-79
2023-02-08,1297,515,-210,-83
2023-02-09,897,579,-92,-85
2023-02-10,1274,547,-125,-94
2023-02-11,1124,566,-125,-96
2023-02-12,356,562,-69,-95
2023-02-13,572,603,-77,-97
2023-02-14,645,639,-125,-105
2023-02-15,1011,618,-161,-115
2023-02-16,454,562,-147,-113
2023-02-17,533,595,-66,-108
2023-02-18,1071,661,-73,-108
2023-02-19,690,709,-37,-98
2023-02-20,2146,862,-183,-108
2023-02-21,576,810,-120,-115
2023-02-22,147,757,-19,-101
2023-02-23,1576,778,-177,-107
2023-02-24,313,720,-35,-101
2023-02-25,340,719,-82,-98
2023-02-26,1091,756,-186,-106
2023-02-27,414,740,-108,-109
2023-02-28,132,677,-104,-107
2023-03-01,1108,724,-166,-107
2023-03-02,358,635,-65,-102
2023-03-03,20,587,-75,-102
2023-03-04,111,570,-28,-99
2023-03-05,1284,533,-133,-106
2023-03-06,438,523,-32,-95
2023-03-07,974,582,-157,-98
2023-03-08,0,470,-10,-97
2023-03-09,425,478,-79,-90
2023-03-10,1129,534,-182,-101
2023-03-11,260,475,-36,-97
2023-03-12,1004,517,-114,-92
2023-03-13,23,509,-42,-87
2023-03-14,316,453,-73,-85
2023-03-15,209,442,-80,-79
2023-03-17,273,452,-102,-76
2023-03-18,1558,472,-146,-85
2023-03-19,1548,551,-190,-89
2023-03-20,1171,565,-146,-97
2023-03-21,881,628,-89,-92
2023-03-22,391,625,-43,-94
2023-03-23,2239,705,-157,-100
2023-03-24,1560,798,-171,-99
2023-03-25,524,763,-104,-104
2023-03-26,74,767,-63,-100
2023-03-27,314,767,-47,-101
2023-03-28,1127,832,-161,-107
2023-03-29,239,849,-150,-112
2023-03-30,-403,859,-75,-117
2023-03-31,134,757,-96,-117
2023-04-01,25,648,-121,-115
2023-04-02,177,577,-141,-112
2023-04-03,198,528,-63,-106
2023-04-04,211,516,-101,-107
2023-04-07,1178,291,-142,-90
2023-04-08,1419,387,-240,-100
2023-04-09,1504,472,-125,-104
2023-04-10,415,421,-97,-108
2023-04-11,212,419,-93,-103
2023-04-12,83,396,-64,-97
2023-04-13,623,431,-146,-102
2023-04-14,691,479,-190,-109
2023-04-15,1632,583,-183,-113
2023-04-16,1031,642,-154,-114
2023-04-17,550,667,-126,-119
2023-04-18,284,687,-218,-127
2023-04-19,1196,772,-206,-142
2023-04-20,1149,770,-133,-151
2023-04-21,2091,818,-280,-161
2023-04-22,734,763,-99,-151
2023-04-23,844,794,-195,-156
2023-04-24,319,801,-262,-168
2023-04-25,495,831,-265,-180
2023-04-26,270,806,-181,-188
2023-04-27,672,804,-217,-194
2023-04-28,864,749,-360,-206
2023-04-29,1248,765,-428,-223
2023-04-30,1455,830,-271,-232
2023-05-01,2586,994,-290,-243
2023-05-02,1925,1046,-249,-245
2023-05-03,2076,1112,-237,-248
2023-05-04,1787,1091,-341,-263
2023-05-05,2250,1199,-225,-259
2023-05-06,3058,1357,-303,-273
2023-05-07,1763,1460,-247,-277
2023-05-08,229,1441,-160,-270
2023-05-10,1029,1447,-157,-249
2023-05-11,972,1455,-254,-252
2023-05-12,696,1416,-281,-246
2023-05-13,647,1358,-81,-221
2023-05-14,72,1178,-87,-208
2023-05-15,496,1076,-129,-197
2023-05-16,1084,1005,-141,-189
2023-05-17,958,946,-255,-190
2023-05-18,-11,786,-346,-190
2023-05-19,8,568,-68,-179
2023-05-25,2,234,-31,-101
2023-05-26,33,149,-16,-82
2023-06-01,0,2,-26,-10
2023-06-04,149,13,-215,-21
2023-06-05,15,14,-49,-24
2023-06-06,2,14,-54,-28
2023-06-07,70,19,-93,-35
2023-06-11,238,33,-44,-34
2023-06-13,132,43,-38,-37
2023-06-14,0,43,-61,-41
2023-06-16,245,60,-74,-45
2023-06-17,387,77,-140,-55
2023-06-18,84,82,-63,-44
2023-06-19,158,93,-80,-46
2023-06-20,59,93,-14,-43
2023-06-21,17,94,-43,-40
2023-06-22,22,69,-40,-43
2023-07-02,0,7,-28,-15
2023-07-03,0,2,-25,-11
2023-07-04,209,16,-185,-23
2023-07-05,0,14,-35,-22
2023-07-06,127,24,-87,-26
2023-07-09,604,67,-68,-31
2023-07-12,304,88,-98,-38
2023-07-13,16,90,-20,-39
2023-07-14,91,96,-64,-44
2023-07-17,492,116,-185,-53
2023-07-19,43,110,-18,-39
2023-07-20,242,128,-58,-37
2023-07-25,87,69,-30,-34
2023-07-26,44,71,-50,-30
2023-07-28,70,69,-32,-27
2023-08-01,992,102,-118,-22
2023-08-03,81,91,-81,-22
2023-08-04,-644,137,-123,-31
2023-08-05,25,138,-44,-34
2023-08-06,132,148,-61,-39
2023-08-08,197,152,-35,-39
2023-08-09,281,173,-76,-41
2023-08-10,4,168,-109,-49
2023-08-20,532,72,-200,-30
2023-08-23,220,53,-121,-31
2023-08-24,132,63,-67,-28
2023-08-26,813,121,-71,-33
2023-08-27,969,190,-256,-51
2023-08-28,304,212,-116,-59
2023-08-29,188,225,-65,-64
2023-08-30,742,278,-61,-68
2023-08-31,166,290,-27,-70
2023-09-01,547,329,-125,-79
2023-09-02,-106,299,-147,-90
2023-09-03,0,299,-125,-84
2023-09-04,6,299,-51,-88
2023-09-05,25,285,-166,-100
2023-09-06,0,276,-133,-101
2023-09-07,0,276,-18,-97
2023-09-08,16,219,-91,-104
2023-09-09,559,189,-211,-114
2023-09-10,150,178,-116,-104
2023-09-12,81,118,-193,-105
2023-09-13,303,128,-64,-105
2023-09-14,850,149,-242,-120
2023-09-17,216,157,-205,-106
2023-09-18,291,176,-46,-106
2023-09-19,322,199,-198,-108
2023-09-20,605,242,-71,-104
2023-09-21,375,268,-80,-108
2023-09-22,1018,300,-122,-111
2023-09-23,466,323,-125,-104
2023-09-24,561,363,-212,-111
2023-09-26,571,376,-130,-107
2023-09-27,377,343,-85,-108
2023-09-28,377,369,-145,-101
2023-09-29,3,370,-64,-106
2023-09-30,0,354,-29,-108
2023-10-01,1257,423,-147,-104
2023-10-03,0,357,-129,-96
2023-10-05,0,258,-68,-90
2023-10-06,1203,310,-194,-95
2023-10-07,89,276,-154,-97
2023-10-08,900,341,-128,-91
2023-10-09,1039,374,-120,-100
2023-10-10,74,353,-128,-99
2023-10-11,1197,411,-121,-102
2023-10-12,1142,492,-139,-102
2023-10-13,727,544,-128,-106
2023-10-14,867,517,-158,-115
2023-10-16,553,556,-91,-111
2023-10-17,439,587,-120,-111
2023-10-18,44,591,-16,-112
2023-10-19,608,548,-128,-116
2023-10-20,1189,627,-131,-112
2023-10-21,1837,694,-162,-112
2023-10-22,1979,761,-120,-112
2023-10-23,0,755,-125,-112
2023-10-27,0,536,-170,-87
2023-10-28,648,521,-180,-89
2023-10-29,753,535,-61,-93
2023-10-30,977,605,-125,-96
2023-11-03,2495,489,-188,-81
2023-11-04,1571,460,-207,-84
2023-11-06,415,489,-64,-71
2023-11-07,517,526,-127,-80
2023-11-08,759,581,-98,-87
2023-11-11,563,521,-101,-69
2023-11-12,189,464,-85,-71
2023-11-13,196,478,-39,-65
2023-11-14,93,485,-74,-70
2023-11-15,1337,581,-269,-89
2023-11-16,747,456,-107,-97
2023-11-17,226,360,-62,-88
2023-11-19,739,383,-144,-84
2023-11-20,1050,421,-150,-90
2023-11-21,728,419,-187,-94
2023-11-22,-103,426,-52,-91
2023-11-23,467,459,-72,-96
2023-11-24,924,485,-105,-103
2023-11-25,733,524,-123,-105
2023-11-26,763,565,-146,-109
2023-11-27,41,561,-64,-111
2023-11-28,986,536,-249,-124
2023-11-29,508,519,-73,-110
2023-11-30,439,534,-91,-108
2023-12-01,884,597,-130,-113
2023-12-02,752,598,-72,-118
2023-12-03,578,564,-182,-121
2023-12-04,344,537,-116,-119
2023-12-05,52,533,-154,-116
2023-12-06,0,500,-36,-115
2023-12-07,618,478,-137,-120
2023-12-08,870,488,-133,-122
2023-12-09,549,472,-85,-119
2023-12-10,1226,557,-104,-116
2023-12-11,605,530,-96,-118
2023-12-13,176,475,-61,-100
2023-12-14,593,454,-106,-101
2023-12-15,140,410,-162,-103
2023-12-16,785,425,-179,-111
2023-12-18,470,430,-200,-104
2023-12-19,249,448,-123,-102
2023-12-21,529,380,-237,-106
2023-12-22,784,396,-120,-105
2023-12-23,866,371,-138,-109
2023-12-24,2327,494,-63,-106
2023-12-26,302,503,-222,-115
2023-12-27,437,492,-96,-118
2023-12-28,167,494,-64,-115
2023-12-31,374,431,-125,-99
2024-01-03,15,376,-44,-79
2024-01-05,838,318,-213,-69
2024-01-07,0,152,-66,-59
2024-01-08,0,130,-121,-68
2024-01-09,0,99,-277,-72
2024-01-10,0,87,-75,-70
2024-01-11,0,80,-80,-72
2024-01-12,761,142,-94,-78
2024-01-13,304,137,-101,-85
2024-01-14,19,138,-89,-83
2024-01-15,0,138,-216,-98
2024-01-16,488,172,-93,-105
2024-01-17,675,220,-100,-109
2024-01-18,398,188,-190,-123
2024-01-19,131,198,-52,-111
2024-01-20,358,223,-37,-114
2024-01-21,611,267,-190,-123
2024-01-22,62,271,-143,-124
2024-01-23,517,308,-129,-114
2024-01-24,401,283,-160,-120
2024-01-25,1012,355,-136,-124
2024-01-26,57,337,-78,-122
2024-01-27,307,358,-235,-132
2024-01-28,0,358,-142,-136
2024-01-29,95,330,-165,-132
2024-01-31,0,253,-193,-132
2024-02-01,170,256,-319,-141
2024-02-02,408,260,-180,-151
2024-02-03,0,216,-83,-154
2024-02-04,64,216,-191,-154
2024-02-05,443,211,-123,-152
2024-02-06,747,235,-115,-151
2024-02-07,666,211,-161,-152
2024-02-08,386,234,-92,-148
2024-02-10,128,221,-247,-137
2024-02-10,0,221,-156,-137
2024-02-12,532,253,-240,-132
2024-02-13,152,264,-245,-150
2024-02-14,920,317,-226,-152
2024-02-15,663,335,-152,-140
2024-02-16,1326,430,-206,-142
2024-02-17,203,440,-91,-143
2024-02-18,370,435,-127,-138
2024-02-19,1185,466,-256,-148
2024-02-20,240,436,-44,-143
2024-02-21,1060,484,-172,-143
2024-02-22,18,485,-135,-146
2024-02-23,302,497,-153,-157
2024-02-24,529,535,-126,-155
2024-02-27,340,445,-129,-130
2024-02-28,707,448,-181,-127
2024-02-29,168,365,-163,-127
2024-03-01,363,377,-186,-126
2024-03-02,26,352,-185,-133
2024-03-03,526,305,-200,-138
2024-03-04,628,333,-181,-133
2024-03-05,296,278,-218,-145
2024-03-06,609,321,-204,-147
2024-03-07,1802,428,-197,-152
2024-03-08,381,417,-124,-150
2024-03-09,94,424,-140,-151
2024-03-10,63,428,-81,-156
2024-03-11,249,422,-353,-182
2024-03-12,253,389,-383,-200
2024-03-13,148,388,-200,-201
2024-03-14,693,412,-291,-210
2024-03-15,35,412,-151,-208
2024-03-17,126,339,-123,-189
2024-03-18,81,323,-122,-185
2024-03-19,47,283,-142,-179
2024-03-20,122,163,-97,-172
2024-03-22,214,145,-65,-153
2024-03-23,162,152,-150,-154
2024-03-24,32,136,-125,-157
2024-03-25,1,118,-59,-136
2024-03-27,10,59,-120,-103
2024-03-28,50,60,-93,-89
2024-03-29,74,65,-75,-84
2024-03-30,105,64,-145,-94
2024-03-31,620,102,-150,-96
2024-04-01,1065,175,-151,-98
2024-04-02,300,188,-39,-91
2024-04-03,309,210,-164,-95
2024-04-04,760,249,-149,-106
2024-04-05,461,270,-140,-111
2024-04-06,0,268,-45,-104
2024-04-08,332,291,-92,-97
2024-04-10,6,288,-28,-91
2024-04-11,9,283,-90,-91
2024-04-12,323,298,-88,-92
2024-04-14,166,190,-136,-80
2024-04-17,-113,100,-131,-64
2024-04-18,13,68,-76,-59
2024-04-19,724,120,-208,-64
2024-04-20,432,199,-101,-68
2024-04-21,2098,277,-394,-96
2024-04-22,195,291,-73,-95
2024-04-23,1165,374,-376,-122
2024-04-24,1360,470,-321,-142
2024-04-25,960,516,-229,-152
2024-04-26,1587,629,-470,-180
2024-04-27,1598,731,-335,-204
2024-04-28,1038,805,-325,-217
2024-04-29,876,923,-246,-235
2024-04-30,773,915,-66,-239
2024-05-01,460,947,-176,-243
2024-05-02,538,934,-253,-255
2024-05-03,222,919,-101,-248
2024-05-04,1240,858,-354,-266
2024-05-05,863,905,-342,-262
2024-05-06,1357,919,-361,-283
2024-05-07,334,846,-98,-263
2024-05-08,2176,933,-420,-270
2024-05-09,1285,911,-265,-272
2024-05-10,1453,901,-514,-275
2024-05-11,1056,902,-241,-269
2024-05-12,2271,1002,-325,-269
2024-05-13,1114,1026,-346,-276
2024-05-14,1193,1078,-413,-301
2024-05-15,523,1077,-70,-293
2024-05-16,2682,1253,-385,-303
2024-05-19,1057,1081,-316,-268
2024-05-20,2184,1213,-350,-267
2024-05-21,602,1101,-354,-286
2024-05-22,0,1009,-60,-260
2024-05-24,806,888,-137,-214
2024-05-27,1,561,-131,-158
2024-05-28,0,523,-74,-134
2024-05-30,0,332,-90,-108
2024-05-31,0,332,-431,-139
2024-06-01,0,256,-223,-155
2024-06-04,88,63,-61,-86
2024-06-07,0,50,-90,-79
2024-06-08,0,6,-143,-89
2024-06-11,785,50,-310,-96
2024-06-12,-8,62,-87,-103
2024-06-13,232,79,-68,-101
2024-06-14,141,89,-125,-79
2024-06-16,1829,220,-108,-71
2024-06-17,888,277,-171,-83
2024-06-18,504,313,-213,-94
2024-06-19,92,319,-177,-107
2024-06-20,546,358,-170,-119
2024-06-21,515,395,-306,-134
2024-06-22,554,435,-125,-133
2024-06-23,725,487,-112,-141
2024-06-24,2355,599,-427,-171
2024-06-25,284,618,-171,-161
2024-06-26,65,607,-168,-167
2024-06-27,0,596,-100,-170
2024-06-28,76,602,-225,-177
2024-06-29,649,518,-286,-197
2024-06-30,0,454,-43,-192
2024-07-01,-1815,548,-88,-187
2024-07-02,0,541,-22,-173
2024-07-03,85,508,-79,-166
2024-07-04,-20,473,-132,-163
2024-07-05,82,439,-126,-150
2024-07-07,2,219,-22,-135
2024-07-08,73,204,-158,-116
2024-07-09,0,200,-171,-116
2024-07-10,-723,251,-297,-125
2024-07-13,0,200,-41,-84
2024-07-15,171,82,-125,-84
2024-07-16,447,108,-72,-87
2024-07-17,828,166,-238,-99
2024-07-18,0,160,-90,-96
2024-07-19,6794,645,-304,-108
2024-07-20,229,661,-188,-122
2024-07-22,269,675,-103,-116
2024-07-23,130,633,-153,-115
2024-07-24,0,633,-144,-104
2024-07-25,374,660,-138,-114
2024-07-29,420,646,-313,-125
2024-07-30,218,602,-69,-124
2024-07-31,0,602,-30,-109
2024-08-01,27,119,-231,-120
2024-08-02,108,110,-70,-103
2024-08-03,0,110,-81,-95
2024-08-04,0,91,-63,-100
2024-08-05,203,96,-369,-119
2024-08-06,1721,219,-616,-152
2024-08-07,20,194,-63,-146
2024-08-08,0,194,-40,-139
2024-08-09,28,196,-85,-145
2024-08-10,0,196,-27,-147
2024-08-11,336,190,-397,-175
2024-08-12,1037,248,-362,-179
2024-08-13,1040,322,-275,-194
2024-08-15,499,348,-168,-187
2024-08-16,101,356,-127,-191
2024-08-18,643,387,-232,-197
2024-08-19,304,286,-231,-187
2024-08-20,1892,420,-164,-155
2024-08-21,661,467,-257,-169
2024-08-22,170,477,-98,-173
2024-08-23,2,477,-324,-190
2024-08-24,0,305,-27,-190
2024-08-26,23,306,-38,-139
2024-08-27,301,328,-210,-134
2024-08-28,-16,293,-178,-147
2024-08-29,0,286,-253,-153
2024-08-30,224,302,-163,-155
2024-09-01,157,246,-169,-151
2024-09-02,68,115,-69,-139
2024-09-03,465,101,-122,-136
2024-09-04,0,95,-110,-126
2024-09-06,18,90,-117,-104
2024-09-07,165,102,-227,-118
2024-09-08,199,115,-122,-127
2024-09-09,109,101,-38,-127
2024-09-10,1071,176,-188,-125
2024-09-11,674,225,-97,-120
2024-09-12,406,238,-152,-112
2024-09-13,248,255,-64,-105
2024-09-14,27,246,-46,-109
2024-09-15,905,306,-211,-112
2024-09-16,974,342,-252,-125
2024-09-17,81,348,-134,-126
2024-09-18,283,368,-108,-125
2024-09-19,101,374,-122,-134
2024-09-20,235,379,-290,-147
2024-09-21,191,378,-340,-155
2024-09-22,53,374,-169,-158
2024-09-23,633,343,-280,-175
2024-09-24,0,266,-217,-177
2024-09-25,0,200,-215,-186
2024-09-26,0,248,-234,-192
2024-09-27,1,246,-269,-206
2024-09-29,0,112,-265,-199
2024-09-29,118,121,-150,-199
2024-09-30,0,115,-57,-185
2024-10-01,0,87,-176,-188
2024-10-02,87,94,-113,-188
2024-10-04,48,67,-87,-165
2024-10-06,243,35,-173,-141
2024-10-07,355,60,-214,-136
2024-10-08,2306,225,-159,-132
2024-10-10,4506,547,-220,-116
2024-10-13,0,538,-80,-91
2024-10-14,528,576,-189,-101
2024-10-15,0,570,-124,-97
2024-10-16,366,596,-175,-102
2024-10-17,360,618,-181,-114
2024-10-18,615,662,-81,-114
2024-10-19,0,645,-19,-115
2024-10-20,0,620,-1,-103
2024-10-21,0,455,-1,-88
2024-10-22,175,467,-142,-87
2024-10-23,0,146,-2,-87
2024-10-24,0,146,-13,-72
2024-10-25,0,146,-2,-72
2024-10-26,0,146,-1,-72
2024-10-27,0,108,-1,-67
2024-10-28,0,108,-272,-73
2024-10-29,-941,149,-123,-72
2024-10-30,118,132,-74,-65
2024-11-01,3,88,-29,-49
2024-11-02,2,88,-54,-51
2024-11-03,41,91,-43,-54
2024-11-04,3,79,-76,-59
2024-11-05,5,79,-124,-58
2024-11-07,18,80,-120,-66
2024-11-08,942,148,-79,-71
2024-11-09,61,152,-101,-78
2024-11-10,0,152,-151,-89
2024-11-11,0,85,-144,-80
2024-11-13,0,76,-40,-69
2024-11-14,0,76,-41,-72
2024-11-15,0,76,-43,-73
2024-11-17,0,73,-74,-71
2024-11-18,0,72,-113,-74
2024-11-19,0,72,-147,-75
2024-11-20,-116,79,-97,-82
2024-11-21,0,12,-122,-82
2024-11-25,0,8,-193,-62
2024-11-26,20,9,-142,-72
2024-11-28,1870,143,-88,-73
2024-11-29,0,143,-173,-82
2024-12-01,0,143,-194,-91
2024-12-02,0,143,-251,-101
2024-12-03,1622,250,-100,-97
2024-12-04,0,250,-126,-99
2024-12-09,0,249,-112,-85
2024-12-10,193,263,-68,-79
2024-12-11,0,129,-106,-87
2024-12-12,0,129,-319,-104
2024-12-15,0,13,-166,-89
2024-12-16,416,43,-131,-81
2024-12-18,0,43,-91,-71
2024-12-20,0,43,-60,-82
2024-12-20,1725,166,-157,-82
2024-12-23,0,152,-134,-84
2024-12-26,0,152,-131,-58
2024-12-27,0,152,-130,-67
2024-12-28,0,152,-95,-74
2024-12-29,0,123,-238,-79
2024-12-30,0,123,-91,-76
2024-12-31,3034,339,-126,-85
2025-01-01,0,339,-85,-85
2025-01-02,233,356,-113,-93
2025-01-04,190,246,-94,-88
2025-01-07,0,246,-187,-92
2025-01-08,967,316,-84,-98
2025-01-09,0,316,-158,-100
2025-01-10,0,316,-158,-102
2025-01-13,0,316,-141,-82
2025-01-14,385,126,-132,-82
2025-01-15,504,162,-272,-96
2025-01-16,0,146,-144,-98
2025-01-17,541,184,-178,-111
2025-01-18,0,171,-12,-105
2025-01-19,2002,314,-104,-112
2025-01-21,0,314,-163,-110
2025-01-22,628,290,-244,-122
2025-01-23,0,290,-307,-133
2025-01-24,0,290,-84,-127
2025-01-25,672,338,-197,-141
2025-01-26,409,367,-123,-150
2025-01-27,0,367,-201,-154
2025-01-29,0,303,-328,-142
2025-01-29,1020,376,-226,-142
2025-01-30,33,378,-345,-156
2025-01-31,0,340,-185,-157
2025-02-01,0,340,-203,-170
2025-02-02,0,197,-189,-176
2025-02-03,0,197,-323,-199
2025-02-04,0,197,-135,-197
2025-02-05,342,176,-128,-189
2025-02-06,0,176,-79,-173
2025-02-07,0,176,-161,-178
2025-02-08,0,128,-379,-191
2025-02-09,269,118,-190,-196
2025-02-10,368,145,-139,-192
2025-02-11,463,178,-225,-208
2025-02-12,966,174,-140,-202
2025-02-14,0,172,-121,-172
2025-02-17,0,172,-169,-133
2025-02-18,1982,313,-142,-134
2025-02-19,808,346,-297,-146
2025-02-20,37,349,-178,-153
2025-02-21,1703,471,-140,-151
2025-02-22,0,471,-166,-136
2025-02-23,1735,575,-134,-132
2025-02-24,2186,705,-162,-134
2025-02-25,0,672,-110,-126
2025-02-26,0,603,-147,-126
2025-02-27,0,603,-167,-138
2025-02-28,0,603,-208,-144
2025-03-01,0,603,-139,-154
2025-03-02,0,603,-212,-169
2025-03-03,0,603,-206,-172
2025-03-04,0,462,-158,-173
